\relax 
\@writefile{toc}{\contentsline {chapter}{\numberline {1}Introduction}{1}}
\@writefile{lof}{\addvspace {10\p@ }}
\@writefile{lot}{\addvspace {10\p@ }}
\@writefile{toc}{\contentsline {section}{\numberline {1.1}Motivation}{1}}
\citation{VisualAcuity}
\@writefile{lof}{\contentsline {figure}{\numberline {1.1}{\ignorespaces View of a 360 degree lens mounted on a normal camera: Except for a blind spot along the axis the camera is mounted on, we achieve a continuous image.\relax }}{2}}
\providecommand*\caption@xref[2]{\@setref\relax\@undefined{#1}}
\newlabel{fig:view_of_360_degree_lens}{{1.1}{2}}
\citation{AustralianDesertAnt}
\citation{VisualAcuity}
\citation{flickerfrequency}
\citation{irp}
\citation{ladybug}
\citation{curvace}
\citation{Compoundeye2}
\citation{compoundeye.wiki}
\citation{compoundeye.wiki}
\@writefile{toc}{\contentsline {section}{\numberline {1.2}Previous Works}{3}}
\newlabel{sec:previous}{{1.2}{3}}
\citation{humaneye.wiki}
\citation{AustralianDesertAnt}
\citation{compoundeye.wiki}
\citation{OpticalScaling}
\citation{VisualAcuity}
\citation{irp}
\citation{AustralianDesertAnt}
\citation{flickerfrequency}
\citation{flickerfrequency}
\@writefile{toc}{\contentsline {section}{\numberline {1.3}Structure of the Ant Eye}{4}}
\@writefile{lof}{\contentsline {figure}{\numberline {1.2}{\ignorespaces The compound structure of the ant eye consists out of many tiny ommatidia that -- when combined -- create a coherent image. Each ommatidium has a separate lens apparatus, and captures a distinct region within the field of view (diagram taken from \cite  {compoundeye.wiki}).\relax }}{4}}
\newlabel{fig:structure_of_the_ant_eye}{{1.2}{4}}
\citation{OpticalScaling}
\citation{OpticalScaling}
\citation{irp}
\@writefile{lof}{\contentsline {figure}{\numberline {1.3}{\ignorespaces The image generated by the ant eye is not continuous, but instead has many gaps between different ommatidia that are caused by the internal design and arrangement of each ommatidium.\relax }}{5}}
\newlabel{fig:gaps_between_ommatidia}{{1.3}{5}}
\@writefile{toc}{\contentsline {section}{\numberline {1.4}Objectives}{5}}
\@writefile{lof}{\contentsline {figure}{\numberline {1.4}{\ignorespaces The two eyes have an overlapping area in the front, but also a blindspot in the back area. (\cite  {OpticalScaling})\relax }}{6}}
\newlabel{fig:overlapping_eyes}{{1.4}{6}}
\@writefile{toc}{\contentsline {section}{\numberline {1.5}Basic Conceptual Design}{6}}
\@writefile{lof}{\contentsline {figure}{\numberline {1.5}{\ignorespaces Presumed "hardware layout" of the ant-brain: Image data is merged within the visual circuit, and then forwarded to the deeper parts of the brain for further processing (e.\tmspace  +\thinmuskip {.1667em}g. to the navigational systems)\relax }}{7}}
\newlabel{fig:ant_brain}{{1.5}{7}}
\@writefile{toc}{\contentsline {section}{\numberline {1.6}Structure of this thesis}{7}}
\@writefile{lof}{\contentsline {figure}{\numberline {1.6}{\ignorespaces Conceptual hardware layout of our image capturing chain: Camera images get merged in a central micro-controller, and then forwarded to the connected computer.\relax }}{8}}
\newlabel{fig:conceptual_layout}{{1.6}{8}}
\@setckpt{chap_introduction}{
\setcounter{page}{10}
\setcounter{equation}{0}
\setcounter{enumi}{0}
\setcounter{enumii}{0}
\setcounter{enumiii}{0}
\setcounter{enumiv}{0}
\setcounter{footnote}{0}
\setcounter{mpfootnote}{0}
\setcounter{part}{0}
\setcounter{chapter}{1}
\setcounter{section}{6}
\setcounter{subsection}{0}
\setcounter{subsubsection}{0}
\setcounter{paragraph}{0}
\setcounter{subparagraph}{0}
\setcounter{figure}{6}
\setcounter{table}{0}
\setcounter{ContinuedFloat}{0}
\setcounter{NAT@ctr}{0}
\setcounter{blindtext}{1}
\setcounter{Blindtext}{5}
\setcounter{blind@countparstart}{0}
\setcounter{blindlist}{0}
\setcounter{blindlistlevel}{0}
\setcounter{blindlist@level}{0}
\setcounter{blind@listcount}{0}
\setcounter{blind@levelcount}{0}
\setcounter{blind@randomcount}{0}
\setcounter{blind@randommax}{0}
\setcounter{blind@pangramcount}{0}
\setcounter{blind@pangrammax}{0}
\setcounter{parentequation}{0}
}
