\relax 
\citation{irp}
\@writefile{toc}{\contentsline {chapter}{\numberline {2}Optical Elements}{11}}
\@writefile{lof}{\addvspace {10\p@ }}
\@writefile{lot}{\addvspace {10\p@ }}
\newlabel{sec:hardware}{{2}{11}}
\@writefile{toc}{\contentsline {section}{\numberline {2.1}Optical Receptor Arrays}{11}}
\@writefile{lof}{\contentsline {figure}{\numberline {2.1}{\ignorespaces A small array of optical elements as can be found in e.\tmspace  +\thinmuskip {.1667em}g. optical mice in form of a specialized sensor chip which provides extraordinary high frame-rates $\geq 2000$\tmspace  +\thinmuskip {.1667em}Hz\relax }}{12}}
\newlabel{fig:optical_arrays}{{2.1}{12}}
\@writefile{toc}{\contentsline {section}{\numberline {2.2}Individual Optical Receptors}{12}}
\@writefile{lof}{\contentsline {figure}{\numberline {2.2}{\ignorespaces Connecting receptors in form of a matrix can save a lot of pins, but requires a sequential readout\relax }}{12}}
\newlabel{fig:ledmatrix}{{2.2}{12}}
\@writefile{toc}{\contentsline {section}{\numberline {2.3}OV7670 Camera Module}{13}}
\@writefile{lof}{\contentsline {figure}{\numberline {2.3}{\ignorespaces The OV7670 CMOS camera module provides a $(640,\nobreakspace  {}480)$-pixel VGA output, and uses a small $0.5$\tmspace  +\thinmuskip {.1667em}mm 24 pin flat ribbon connector\relax }}{13}}
\newlabel{fig:ov7670}{{2.3}{13}}
\@writefile{lof}{\contentsline {figure}{\numberline {2.4}{\ignorespaces A larger version of the OV7670 that is easier to interface\relax }}{14}}
\newlabel{fig:ov7670_dip}{{2.4}{14}}
\@writefile{lof}{\contentsline {figure}{\numberline {2.5}{\ignorespaces Breakout Board for the 0.5mm Flat Ribbon Connector.\relax }}{14}}
\newlabel{fig:fpc_breakout}{{2.5}{14}}
\@writefile{lof}{\contentsline {figure}{\numberline {2.6}{\ignorespaces OV7670 VGA Signal Output: On each frame VSYNC, on each row HREF, and on each pixel PCLK is clocked.\relax }}{15}}
\newlabel{fig:ov7670_vga}{{2.6}{15}}
\@writefile{lof}{\contentsline {figure}{\numberline {2.7}{\ignorespaces VGA Scan pattern: Data is presented row-wise.\relax }}{15}}
\newlabel{fig:ov7670_vga_scan}{{2.7}{15}}
\@writefile{lof}{\contentsline {figure}{\numberline {2.8}{\ignorespaces The actual signal is uneven with large gaps between data blocks, and thus increases the immediate required signal processing frequency capability of the attached controller.\relax }}{15}}
\newlabel{fig:ov7670_row_gap}{{2.8}{15}}
\@writefile{lot}{\contentsline {table}{\numberline {2.1}{\ignorespaces Pin-out of the OV7670 camera module as sold on eBay\relax }}{16}}
\newlabel{tab:pinout}{{2.1}{16}}
\@writefile{lof}{\contentsline {figure}{\numberline {2.9}{\ignorespaces The RGB565 data format uses two bytes for a single pixel\relax }}{16}}
\newlabel{fig:rgb565}{{2.9}{16}}
\@writefile{lof}{\contentsline {figure}{\numberline {2.10}{\ignorespaces A OV7670 camera module taken apart: The imaging sensor can be seen on the left, the de-screwable lens on the right.\relax }}{18}}
\newlabel{fig:ov7670_apart}{{2.10}{18}}
\@writefile{lof}{\contentsline {figure}{\numberline {2.11}{\ignorespaces The default lens of the OV7670 has an IR filter (red-ish) which can be removed by using a small knife.\relax }}{18}}
\newlabel{fig:ov7670_lens}{{2.11}{18}}
\@setckpt{chap_hardware_choices}{
\setcounter{page}{19}
\setcounter{equation}{6}
\setcounter{enumi}{0}
\setcounter{enumii}{0}
\setcounter{enumiii}{0}
\setcounter{enumiv}{0}
\setcounter{footnote}{0}
\setcounter{mpfootnote}{0}
\setcounter{part}{0}
\setcounter{chapter}{2}
\setcounter{section}{3}
\setcounter{subsection}{0}
\setcounter{subsubsection}{0}
\setcounter{paragraph}{0}
\setcounter{subparagraph}{0}
\setcounter{figure}{11}
\setcounter{table}{1}
\setcounter{ContinuedFloat}{0}
\setcounter{NAT@ctr}{0}
\setcounter{blindtext}{1}
\setcounter{Blindtext}{5}
\setcounter{blind@countparstart}{0}
\setcounter{blindlist}{0}
\setcounter{blindlistlevel}{0}
\setcounter{blindlist@level}{0}
\setcounter{blind@listcount}{0}
\setcounter{blind@levelcount}{0}
\setcounter{blind@randomcount}{0}
\setcounter{blind@randommax}{0}
\setcounter{blind@pangramcount}{0}
\setcounter{blind@pangrammax}{0}
\setcounter{parentequation}{0}
}
