\relax 
\@writefile{toc}{\contentsline {chapter}{\numberline {4}Merge Board}{35}}
\@writefile{lof}{\addvspace {10\p@ }}
\@writefile{lot}{\addvspace {10\p@ }}
\newlabel{sec:mergeboard}{{4}{35}}
\@writefile{lof}{\contentsline {figure}{\numberline {4.1}{\ignorespaces The fully assembled Merge Board: No special PCB was required due to less dense space constraints; the cameras are connected at the pin array in the bottom via dupont cables.\relax }}{35}}
\newlabel{fig:mergeboard}{{4.1}{35}}
\@writefile{toc}{\contentsline {section}{\numberline {4.1}Hardware Choice}{36}}
\@writefile{toc}{\contentsline {subsection}{\numberline {4.1.1}Shared UART Bus}{36}}
\@writefile{toc}{\contentsline {section}{\numberline {4.2}Board schematics and considerations}{37}}
\@writefile{lof}{\contentsline {figure}{\numberline {4.2}{\ignorespaces Schematic for the Merge Board: A PIC32 micro-controller connects the cameras to the computer using 4 shared UART buses, and USB 2.0.\relax }}{37}}
\newlabel{fig:merge_board_schematic}{{4.2}{37}}
\@writefile{toc}{\contentsline {subsection}{\numberline {4.2.1}Breakout Board}{38}}
\@writefile{lof}{\contentsline {figure}{\numberline {4.3}{\ignorespaces The TQFP breakout board allows us to put the controller on a normal $2.54$\tmspace  +\thinmuskip {.1667em}mm prototyping board.\relax }}{38}}
\newlabel{fig:tqfp_breakout}{{4.3}{38}}
\@writefile{toc}{\contentsline {subsection}{\numberline {4.2.2}Voltage Regulators}{38}}
\@writefile{lof}{\contentsline {figure}{\numberline {4.4}{\ignorespaces A missing capacitor on a voltage regulator caused noisy images (right) on 8 of the 16 cameras.\relax }}{39}}
\newlabel{fig:camera_board_noisy_voltage}{{4.4}{39}}
\@writefile{toc}{\contentsline {section}{\numberline {4.3}Merging 16 cameras into one image}{39}}
\@writefile{toc}{\contentsline {subsection}{\numberline {4.3.1}Sequential Camera Readout}{39}}
\@writefile{toc}{\contentsline {subsection}{\numberline {4.3.2}Bus Idle Detection}{39}}
\@writefile{lof}{\contentsline {figure}{\numberline {4.5}{\ignorespaces Logic Analyzer Dump of the data transmitted to/from the merge board while reading out a frame: 'R' 'A' 'F' is sent after the bus has been idle, and thus a new frame is requested from camera A. The camera responds immediately with the frame data (here, test data: 'S, 'A', 'B', 'A', \dots  ). \relax }}{40}}
\newlabel{fig:merge_board_command_framing}{{4.5}{40}}
\@writefile{toc}{\contentsline {subsection}{\numberline {4.3.3}Probing the Camera Bus}{40}}
\@writefile{toc}{\contentsline {subsection}{\numberline {4.3.4}Maximum Bus Speed}{40}}
\citation{usb}
\@writefile{lof}{\contentsline {figure}{\numberline {4.6}{\ignorespaces The camera board with all 16 cameras attached.\relax }}{41}}
\newlabel{fig:merge_board_connected}{{4.6}{41}}
\@writefile{lof}{\contentsline {figure}{\numberline {4.7}{\ignorespaces Cameras are queried in a cyclic, sequential fashion on the same bus, but in parallel along all 4 UART buses.\relax }}{41}}
\newlabel{fig:merge_board_interleaving}{{4.7}{41}}
\@writefile{toc}{\contentsline {section}{\numberline {4.4}USB computer connection}{41}}
\@writefile{toc}{\contentsline {section}{\numberline {4.5}Program Flow}{42}}
\@writefile{lof}{\contentsline {figure}{\numberline {4.8}{\ignorespaces Application flow diagram for the Merge Board Controller: Multiple State machines (right) are run in parallel and independently of each other, and are called by the main loop (left).\relax }}{43}}
\newlabel{fig:merge_board_flow}{{4.8}{43}}
\@writefile{lof}{\contentsline {figure}{\numberline {4.9}{\ignorespaces The raw merged image as visible on the PC: Here a test image/empty frame-buffer is shown. Each camera is placed on a different row-multiple of the frame-buffer.\relax }}{44}}
\newlabel{fig:camera_board_final_image}{{4.9}{44}}
\@writefile{lof}{\contentsline {figure}{\numberline {4.10}{\ignorespaces Output of the camera board, scaled up and aligned in a $4 \times 4$ grid. The camera ID (yellow) can be seen on the top left of each image.\relax }}{44}}
\newlabel{fig:camera_board_output}{{4.10}{44}}
\@setckpt{chap_mergeboard}{
\setcounter{page}{45}
\setcounter{equation}{4}
\setcounter{enumi}{2}
\setcounter{enumii}{0}
\setcounter{enumiii}{0}
\setcounter{enumiv}{0}
\setcounter{footnote}{2}
\setcounter{mpfootnote}{0}
\setcounter{part}{0}
\setcounter{chapter}{4}
\setcounter{section}{5}
\setcounter{subsection}{0}
\setcounter{subsubsection}{0}
\setcounter{paragraph}{0}
\setcounter{subparagraph}{0}
\setcounter{figure}{10}
\setcounter{table}{0}
\setcounter{ContinuedFloat}{0}
\setcounter{NAT@ctr}{0}
\setcounter{blindtext}{1}
\setcounter{Blindtext}{5}
\setcounter{blind@countparstart}{0}
\setcounter{blindlist}{0}
\setcounter{blindlistlevel}{0}
\setcounter{blindlist@level}{0}
\setcounter{blind@listcount}{0}
\setcounter{blind@levelcount}{0}
\setcounter{blind@randomcount}{0}
\setcounter{blind@randommax}{0}
\setcounter{blind@pangramcount}{0}
\setcounter{blind@pangrammax}{0}
\setcounter{parentequation}{0}
}
