\relax 
\@writefile{toc}{\contentsline {chapter}{\numberline {6}Camera Sphere}{49}}
\@writefile{lof}{\addvspace {10\p@ }}
\@writefile{lot}{\addvspace {10\p@ }}
\newlabel{sec:panorama}{{6}{49}}
\newlabel{sec:sphere}{{6}{49}}
\@writefile{toc}{\contentsline {section}{\numberline {6.1}Modelling the Ant Eye}{49}}
\@writefile{toc}{\contentsline {subsection}{\numberline {6.1.1}Two eye segments}{49}}
\@writefile{lof}{\contentsline {figure}{\numberline {6.1}{\ignorespaces The ball-pit ball half proposed for our spherical base.\relax }}{50}}
\newlabel{fig:ballpit_half}{{6.1}{50}}
\@writefile{lof}{\contentsline {figure}{\numberline {6.2}{\ignorespaces The first fully assembled prototype: Cameras are attached in close proximity of each other.\relax }}{50}}
\newlabel{fig:ballpit_assembled}{{6.2}{50}}
\@writefile{toc}{\contentsline {subsection}{\numberline {6.1.2}Spherical Prototype}{50}}
\@writefile{lof}{\contentsline {figure}{\numberline {6.3}{\ignorespaces The spherical prototype: Cameras were attached in 45\textdegree \nobreakspace  {} angles apart using hot glue.\relax }}{51}}
\newlabel{fig:camera_sphere}{{6.3}{51}}
\@writefile{lof}{\contentsline {figure}{\numberline {6.4}{\ignorespaces Camera boards where "hidden" in the inside of the prototype. The connectors had to be twisted slightly in some instances.\relax }}{51}}
\newlabel{fig:camera_sphere2}{{6.4}{51}}
\@writefile{lof}{\contentsline {figure}{\numberline {6.5}{\ignorespaces Alignment of the 16 cameras on the camera sphere; colors represent differently oriented circles. The horizontal plane (red) was favored with more cameras.\relax }}{52}}
\newlabel{fig:camera_sphere_layout}{{6.5}{52}}
\@writefile{toc}{\contentsline {section}{\numberline {6.2}3D Visualization}{52}}
\@writefile{lof}{\contentsline {figure}{\numberline {6.6}{\ignorespaces 3D Panorama View: All 16 cameras are mapped onto the camera sphere at their "should-be" position. A laptop (middle) and a plant (middle-right) can be seen in the displayed frames.\relax }}{53}}
\newlabel{fig:panorama}{{6.6}{53}}
\@writefile{toc}{\contentsline {section}{\numberline {6.3}Calibration of the Camera Sphere}{53}}
\@writefile{toc}{\contentsline {subsection}{\numberline {6.3.1}Manual Calibration}{53}}
\@writefile{toc}{\contentsline {subsection}{\numberline {6.3.2}Challenges}{53}}
\@writefile{toc}{\contentsline {subsection}{\numberline {6.3.3}Automatic Calibration}{54}}
\@writefile{lof}{\contentsline {figure}{\numberline {6.7}{\ignorespaces The calibration test pattern used for our pose estimation: Two parallel black lines with a width of $1$\tmspace  +\thinmuskip {.1667em}cm that are exactly $2$\tmspace  +\thinmuskip {.1667em}cm apart, and have a length of $15.3$\tmspace  +\thinmuskip {.1667em}cm. All on a white background.\relax }}{54}}
\newlabel{fig:calibration_testpattern}{{6.7}{54}}
\@writefile{toc}{\contentsline {subsubsection}{\numberline {6.3.3.1}Pattern detection}{55}}
\@writefile{toc}{\contentsline {subsubsection}{\numberline {6.3.3.2}Pair-wise pose estimation}{55}}
\@writefile{lof}{\contentsline {figure}{\numberline {6.8}{\ignorespaces Pattern detection; step description can be seen in the top of each frame. In the end only one (red text) potential match/detection remains\relax }}{56}}
\newlabel{fig:calibration_pattern_detection}{{6.8}{56}}
\@writefile{lof}{\contentsline {figure}{\numberline {6.9}{\ignorespaces Pair-wise Pose Correction: We first correct the rotational error (top right), then fix both translation offsets along the orthogonal and the line axis itself (bottom).\relax }}{56}}
\newlabel{fig:calibration_vectors}{{6.9}{56}}
\@writefile{lof}{\contentsline {figure}{\numberline {6.10}{\ignorespaces Effect of pose estimation: Original (left), Camera 'N' calibrated (right)\relax }}{57}}
\newlabel{fig:calibration_pose_diff}{{6.10}{57}}
\@writefile{toc}{\contentsline {subsubsection}{\numberline {6.3.3.3}Graph-based recursive relocation}{57}}
\@writefile{lof}{\contentsline {figure}{\numberline {6.11}{\ignorespaces Flood fill of the calibration graph. Pairs are first grouped into connected sub graphs, and then iteratively filled from/calibrated to the center node (here: 'A')\relax }}{57}}
\newlabel{fig:graph_fill}{{6.11}{57}}
\@writefile{lof}{\contentsline {figure}{\numberline {6.12}{\ignorespaces Gathering Calibration Data in practice: The number of detected patterns per camera can be seen in the middle, and the number of joint/correlated detections in the right image. The whole calibration is a lengthy process since a full transitive chain from the root node to any other node has to be established.\relax }}{58}}
\newlabel{fig:calibration_in_action}{{6.12}{58}}
\@setckpt{chap_panoramaview}{
\setcounter{page}{59}
\setcounter{equation}{0}
\setcounter{enumi}{7}
\setcounter{enumii}{4}
\setcounter{enumiii}{0}
\setcounter{enumiv}{0}
\setcounter{footnote}{2}
\setcounter{mpfootnote}{0}
\setcounter{part}{0}
\setcounter{chapter}{6}
\setcounter{section}{3}
\setcounter{subsection}{3}
\setcounter{subsubsection}{3}
\setcounter{paragraph}{0}
\setcounter{subparagraph}{0}
\setcounter{figure}{12}
\setcounter{table}{0}
\setcounter{ContinuedFloat}{0}
\setcounter{NAT@ctr}{0}
\setcounter{blindtext}{1}
\setcounter{Blindtext}{5}
\setcounter{blind@countparstart}{0}
\setcounter{blindlist}{0}
\setcounter{blindlistlevel}{0}
\setcounter{blindlist@level}{0}
\setcounter{blind@listcount}{0}
\setcounter{blind@levelcount}{0}
\setcounter{blind@randomcount}{0}
\setcounter{blind@randommax}{0}
\setcounter{blind@pangramcount}{0}
\setcounter{blind@pangrammax}{0}
\setcounter{parentequation}{0}
}
