\relax 
\@writefile{toc}{\contentsline {chapter}{\numberline {5}AntEye .NET API}{45}}
\@writefile{lof}{\addvspace {10\p@ }}
\@writefile{lot}{\addvspace {10\p@ }}
\newlabel{sec:api}{{5}{45}}
\@writefile{toc}{\contentsline {section}{\numberline {5.1}Conceptual Design}{45}}
\@writefile{lof}{\contentsline {figure}{\numberline {5.1}{\ignorespaces Event-based API Data Flow (left to right)\relax }}{45}}
\newlabel{fig:api_flow}{{5.1}{45}}
\@writefile{toc}{\contentsline {section}{\numberline {5.2}API Reference}{46}}
\@writefile{lof}{\contentsline {figure}{\numberline {5.2}{\ignorespaces API Class Diagram; grouped by area.\relax }}{46}}
\newlabel{fig:api_class_diagram}{{5.2}{46}}
\@writefile{toc}{\contentsline {section}{\numberline {5.3}Frame Reader Implementation}{46}}
\@writefile{toc}{\contentsline {section}{\numberline {5.4}Implemented Programs}{47}}
\@writefile{lof}{\contentsline {figure}{\numberline {5.3}{\ignorespaces I$^2$C Console\relax }}{47}}
\newlabel{fig:i2cconsole}{{5.3}{47}}
\@writefile{lof}{\contentsline {figure}{\numberline {5.4}{\ignorespaces Frame Recorder\relax }}{47}}
\newlabel{fig:framerecorder}{{5.4}{47}}
\@setckpt{chap_pc_api}{
\setcounter{page}{49}
\setcounter{equation}{0}
\setcounter{enumi}{5}
\setcounter{enumii}{4}
\setcounter{enumiii}{0}
\setcounter{enumiv}{0}
\setcounter{footnote}{0}
\setcounter{mpfootnote}{0}
\setcounter{part}{0}
\setcounter{chapter}{5}
\setcounter{section}{4}
\setcounter{subsection}{0}
\setcounter{subsubsection}{0}
\setcounter{paragraph}{0}
\setcounter{subparagraph}{0}
\setcounter{figure}{4}
\setcounter{table}{0}
\setcounter{ContinuedFloat}{0}
\setcounter{NAT@ctr}{0}
\setcounter{blindtext}{1}
\setcounter{Blindtext}{5}
\setcounter{blind@countparstart}{0}
\setcounter{blindlist}{0}
\setcounter{blindlistlevel}{0}
\setcounter{blindlist@level}{0}
\setcounter{blind@listcount}{0}
\setcounter{blind@levelcount}{0}
\setcounter{blind@randomcount}{0}
\setcounter{blind@randommax}{0}
\setcounter{blind@pangramcount}{0}
\setcounter{blind@pangrammax}{0}
\setcounter{parentequation}{0}
}
