\relax 
\@writefile{toc}{\contentsline {chapter}{\numberline {7}Evaluation}{59}}
\@writefile{lof}{\addvspace {10\p@ }}
\@writefile{lot}{\addvspace {10\p@ }}
\newlabel{sec:eval}{{7}{59}}
\@writefile{toc}{\contentsline {section}{\numberline {7.1}Achieved Objectives}{59}}
\@writefile{toc}{\contentsline {section}{\numberline {7.2}Frame-rate Statistics}{60}}
\newlabel{sec:framerate}{{7.2}{60}}
\@writefile{lot}{\contentsline {table}{\numberline {7.1}{\ignorespaces Maximum possible frame rates for each component and resolution. Values for "$500$ pixels" are theoretically calculated, not measured.\relax }}{60}}
\newlabel{table:framerate}{{7.1}{60}}
\@writefile{lot}{\contentsline {table}{\numberline {7.2}{\ignorespaces Maximum throughput of several USB serial port devices.\relax }}{61}}
\newlabel{table:usb}{{7.2}{61}}
\@writefile{toc}{\contentsline {section}{\numberline {7.3}Calibration Results}{61}}
\@writefile{lof}{\contentsline {figure}{\numberline {7.1}{\ignorespaces Distribution of alignment error between camera pairs along the orthogonal axis. The mean of the Gaussian with $\mu = 3$ might be caused by a $\pm 1$ pixel error in the line detection.\relax }}{62}}
\newlabel{fig:calibration_results}{{7.1}{62}}
\@writefile{lof}{\contentsline {figure}{\numberline {7.2}{\ignorespaces Distribution of alignment error between camera pairs along the line axis (error in total line length). The higher error rate relates to the higher number of dependencies (estimated line width and line length).\relax }}{62}}
\newlabel{fig:calibration_results2}{{7.2}{62}}
\citation{visualcompass}
\@writefile{lot}{\contentsline {table}{\numberline {7.3}{\ignorespaces Cost calculation for a single camera board; work hours excluded\relax }}{63}}
\newlabel{table:cost}{{7.3}{63}}
\@writefile{toc}{\contentsline {section}{\numberline {7.4}Cost of a single camera board}{63}}
\@writefile{toc}{\contentsline {section}{\numberline {7.5}Testing a navigation algorithm: Visual Compass}{63}}
\@writefile{lof}{\contentsline {figure}{\numberline {7.3}{\ignorespaces Test on the same set ($\delta = 0$)\relax }}{65}}
\newlabel{fig:compass_circleBref}{{7.3}{65}}
\@writefile{lof}{\contentsline {figure}{\numberline {7.4}{\ignorespaces Test on the 'circleA' set\relax }}{65}}
\newlabel{fig:compass_circleA}{{7.4}{65}}
\@writefile{lof}{\contentsline {figure}{\numberline {7.5}{\ignorespaces Test on the 'circleC' set\relax }}{65}}
\newlabel{fig:compass_circleC}{{7.5}{65}}
\@writefile{lof}{\contentsline {figure}{\numberline {7.6}{\ignorespaces Frame from B in set C\relax }}{65}}
\newlabel{fig:compass_circleBinC}{{7.6}{65}}
\@writefile{lof}{\contentsline {figure}{\numberline {7.7}{\ignorespaces Delta-measurements of our test-frame to the reference set. The lowest point marks the correctly estimated direction. (x: frame index, y: color delta, lower is better)\relax }}{65}}
\newlabel{fig:visualcompass}{{7.7}{65}}
\@writefile{lof}{\contentsline {figure}{\numberline {7.8}{\ignorespaces Visual Compass delta over time (frames) for the circle C series when matched against circle B: We can see the peak continously moving from the left to right (as expected).\relax }}{65}}
\newlabel{fig:compass_progress}{{7.8}{65}}
\@writefile{lof}{\contentsline {figure}{\numberline {7.9}{\ignorespaces A 2D version of the panorama algorithm was created that tries to put the images in their expected spot. Spatial distortion along the Y-axis and overlap-calibration is missing though.\relax }}{66}}
\newlabel{fig:visualcompass_input}{{7.9}{66}}
\@setckpt{chap_evaluation}{
\setcounter{page}{67}
\setcounter{equation}{1}
\setcounter{enumi}{7}
\setcounter{enumii}{4}
\setcounter{enumiii}{0}
\setcounter{enumiv}{0}
\setcounter{footnote}{3}
\setcounter{mpfootnote}{0}
\setcounter{part}{0}
\setcounter{chapter}{7}
\setcounter{section}{5}
\setcounter{subsection}{0}
\setcounter{subsubsection}{3}
\setcounter{paragraph}{0}
\setcounter{subparagraph}{0}
\setcounter{figure}{9}
\setcounter{table}{3}
\setcounter{ContinuedFloat}{0}
\setcounter{NAT@ctr}{0}
\setcounter{blindtext}{1}
\setcounter{Blindtext}{5}
\setcounter{blind@countparstart}{0}
\setcounter{blindlist}{0}
\setcounter{blindlistlevel}{0}
\setcounter{blindlist@level}{0}
\setcounter{blind@listcount}{0}
\setcounter{blind@levelcount}{0}
\setcounter{blind@randomcount}{0}
\setcounter{blind@randommax}{0}
\setcounter{blind@pangramcount}{0}
\setcounter{blind@pangrammax}{0}
\setcounter{parentequation}{0}
}
