\relax 
\@writefile{toc}{\contentsline {chapter}{\numberline {3}Camera Board}{19}}
\@writefile{lof}{\addvspace {10\p@ }}
\@writefile{lot}{\addvspace {10\p@ }}
\newlabel{sec:cameraboard}{{3}{19}}
\@writefile{lof}{\contentsline {figure}{\numberline {3.1}{\ignorespaces The finished camera board: The camera is attached on the left, the central processing board will be attached to the pins on the right using dupont cables.\relax }}{19}}
\newlabel{fig:camera_board}{{3.1}{19}}
\@writefile{toc}{\contentsline {section}{\numberline {3.1}AVR versus PIC24F Microcontrollers versus FPGAs}{20}}
\@writefile{toc}{\contentsline {section}{\numberline {3.2}Connecting the OV7670 module}{21}}
\newlabel{sec:connecting}{{3.2}{21}}
\@writefile{lof}{\contentsline {figure}{\numberline {3.2}{\ignorespaces Connection scheme of the OV7670 module to a PIC24F microcontroller\relax }}{22}}
\newlabel{fig:ov7679_to_pic}{{3.2}{22}}
\@writefile{toc}{\contentsline {section}{\numberline {3.3}Board schematics and design}{22}}
\@writefile{lof}{\contentsline {figure}{\numberline {3.3}{\ignorespaces The PCB that was designed for the camera board: Camera socket on the left, micro-controller in the middle, and voltage regulator on the right. A larger version can be found in the appendix (red: top layer, blue: bottom layer).\relax }}{23}}
\newlabel{fig:camera_board_design}{{3.3}{23}}
\@writefile{lof}{\contentsline {figure}{\numberline {3.4}{\ignorespaces After an initial prototype was completed (left), all the remaining boards were soldered at the same time. Here: First soldering on the PIC24F micro-controller using a hot air gun\relax }}{24}}
\newlabel{fig:camera_board_soldering1}{{3.4}{24}}
\@writefile{lof}{\contentsline {figure}{\numberline {3.5}{\ignorespaces All camera modules are soldered up and tested for functionality; unique IDs have been assigned to each board.\relax }}{24}}
\newlabel{fig:camera_board_soldering2}{{3.5}{24}}
\@writefile{toc}{\contentsline {section}{\numberline {3.4}Micro-controller Program Flow and Design}{25}}
\@writefile{lof}{\contentsline {figure}{\numberline {3.6}{\ignorespaces Program flow of the controller on the camera board\relax }}{25}}
\newlabel{fig:camera_board_flow}{{3.6}{25}}
\@writefile{toc}{\contentsline {subsection}{\numberline {3.4.1}Hand-optimized interrupt routines}{26}}
\@writefile{toc}{\contentsline {subsection}{\numberline {3.4.2}Communication protocol}{28}}
\newlabel{sec:uart}{{3.4.2}{28}}
\@writefile{lot}{\contentsline {table}{\numberline {3.1}{\ignorespaces UART, Character-based Command Structure\relax }}{28}}
\newlabel{table:uartcmd}{{3.1}{28}}
\@writefile{toc}{\contentsline {subsection}{\numberline {3.4.3}Readout of selected pixels}{29}}
\@writefile{lof}{\contentsline {figure}{\numberline {3.7}{\ignorespaces Single pixels of the whole frame are selected using indices (red), thus creating a down-scaled image\relax }}{29}}
\newlabel{fig:pixelselect1}{{3.7}{29}}
\@writefile{lof}{\contentsline {figure}{\numberline {3.8}{\ignorespaces The "pixel-select" algorithm can also be used to realize approximated, pre-calculated versions of complex image transformations such as e.\tmspace  +\thinmuskip {.1667em}g. rotations.\relax }}{30}}
\newlabel{fig:pixelselect2}{{3.8}{30}}
\@writefile{toc}{\contentsline {section}{\numberline {3.5}Issues arising during development}{31}}
\@writefile{lof}{\contentsline {figure}{\numberline {3.9}{\ignorespaces Camera image sampled on the wrong edge results in unstable colors\relax }}{31}}
\newlabel{fig:camera_board_testimage_wrong_edge}{{3.9}{31}}
\@writefile{lof}{\contentsline {figure}{\numberline {3.10}{\ignorespaces The camera image correctly visualized (here: an internal test pattern)\relax }}{31}}
\newlabel{fig:camera_board_testimage}{{3.10}{31}}
\@writefile{lof}{\contentsline {figure}{\numberline {3.11}{\ignorespaces Test image if a wrong internal Pixel Delay is selected\relax }}{31}}
\newlabel{fig:camera_board_testimage_wrong_pclk}{{3.11}{31}}
\@writefile{lof}{\contentsline {figure}{\numberline {3.12}{\ignorespaces Real camera image, but with lost bits (middle) and wrong framing\relax }}{31}}
\newlabel{fig:camera_board_testimage_wrong_framing}{{3.12}{31}}
\citation{YCrCb}
\@writefile{toc}{\contentsline {section}{\numberline {3.6}Color Calibration}{32}}
\newlabel{eq:ycrcb}{{3.6}{32}}
\@setckpt{chap_cameraboard}{
\setcounter{page}{34}
\setcounter{equation}{8}
\setcounter{enumi}{0}
\setcounter{enumii}{0}
\setcounter{enumiii}{0}
\setcounter{enumiv}{0}
\setcounter{footnote}{6}
\setcounter{mpfootnote}{0}
\setcounter{part}{0}
\setcounter{chapter}{3}
\setcounter{section}{6}
\setcounter{subsection}{0}
\setcounter{subsubsection}{0}
\setcounter{paragraph}{0}
\setcounter{subparagraph}{0}
\setcounter{figure}{12}
\setcounter{table}{1}
\setcounter{ContinuedFloat}{0}
\setcounter{NAT@ctr}{0}
\setcounter{blindtext}{1}
\setcounter{Blindtext}{5}
\setcounter{blind@countparstart}{0}
\setcounter{blindlist}{0}
\setcounter{blindlistlevel}{0}
\setcounter{blindlist@level}{0}
\setcounter{blind@listcount}{0}
\setcounter{blind@levelcount}{0}
\setcounter{blind@randomcount}{0}
\setcounter{blind@randommax}{0}
\setcounter{blind@pangramcount}{0}
\setcounter{blind@pangrammax}{0}
\setcounter{parentequation}{0}
}
