\relax 
\@input{chap_introduction.aux}
\@input{chap_hardware_choices.aux}
\@input{chap_cameraboard.aux}
\@input{chap_mergeboard.aux}
\@input{chap_pc_api.aux}
\@input{chap_panoramaview.aux}
\@input{chap_evaluation.aux}
\@input{chap_conclusion.aux}
\@input{appendix1.aux}
\bibstyle{plainnat}
\bibdata{thesis}
\bibcite{curvace}{{1}{2014}{{Curvace}}{{}}}
\bibcite{visualcompass}{{2}{2006}{{Labrosse}}{{}}}
\bibcite{VisualAcuity}{{3}{1997}{{Land}}{{}}}
\bibcite{irp}{{4}{2014}{{Linder}}{{}}}
\bibcite{YCrCb}{{5}{2014}{{Microsoft-Developer-Network}}{{}}}
\bibcite{ladybug}{{6}{2014}{{Point-Grey}}{{}}}
\bibcite{flickerfrequency}{{7}{1961}{{Ruck}}{{}}}
\bibcite{AustralianDesertAnt}{{8}{2011}{{Schwarz et~al.}}{{Schwarz, Narendra, and Zeil}}}
\bibcite{usb}{{9}{2000}{{USB-Implementers-Forum}}{{}}}
\bibcite{compoundeye.wiki}{{10}{2014{a}}{{Wikipedia}}{{}}}
\bibcite{humaneye.wiki}{{11}{2014{b}}{{Wikipedia}}{{}}}
\bibcite{Compoundeye2}{{12}{2013}{{Young Min~Song}}{{}}}
\bibcite{OpticalScaling}{{13}{1995}{{Zollikofer et~al.}}{{Zollikofer, Wehner, and Fukushi}}}
\@writefile{toc}{\contentsline {chapter}{Bibliography}{77}}
